        -:    0:Source:F:/sathya/ut_workspace/Jenkin_project/INC/M_power_handler.c
        -:    0:Graph:F:\sathya\ut_workspace\Jenkin_project\DBG\TST\gtst_M_power_handler.gcno
        -:    0:Data:F:\sathya\ut_workspace\Jenkin_project\DBG\TST\gtst_M_power_handler.gcda
        -:    0:Runs:1
        -:    0:Programs:1
        -:    1:#include "M_ADC_hdlr.h" 
        -:    2:#include "M_power_handler.h"
        -:    3:#include "M_SYS_NOTI_hdlr.h"
        -:    4:#include "A_main_app_handler.h"
        -:    5:#include "M_ZONE_intr_hdlr.h"
        -:    6:
        -:    7:#include "r_cg_macrodriver.h"
        -:    8:#include "r_cg_userdefine.h"
        -:    9:/*
        -:   10:	bat 12v --> 440 to 470
        -:   11:	bat 10v --> 360 to 385
        -:   12:	bat 9v --> 325 to 340
        -:   13:	
        -:   14:*/
        -:   15:
        -:   16:/*#define AC_ON_TH 534
        -:   17:#define BAT_ON_TH 450
        -:   18:#define BAT_LOW_TH 500
        -:   19:#define BAT_SH_TH 500
        -:   20:#define BAT_FAIL_TH 500*/
        -:   21:
        -:   22:/******************COLLECTED DATA*************
        -:   23:AC SMPS(15.3V)- 537
        -:   24:BAT 13V - 462 
        -:   25:BAT 12V - 422
        -:   26:BAT 11V - 387
        -:   27:BAT 10.5V - 367
        -:   28:BAT 10V - 348
        -:   29:**********************************************/
        -:   30:
        -:   31:#define AC_ON_TH 500
        -:   32:
        -:   33:#define BAT_NORM_H 420
        -:   34:#define BAT_NORM_L1 320
        -:   35:#define BAT_NORM_L2 365
        -:   36:
        -:   37:#define BAT_LOW_H 315
        -:   38:#define BAT_LOW_L1 280
        -:   39:#define BAT_LOW_L2 300
        -:   40:
        -:   41:#define BAT_SH 250
        -:   42:
        -:   43:#define BAT_CONN_TH 815
        -:   44:#define BAT_DISCONN_TH 810
        -:   45:
        -:   46: #define POW_TH 20
        -:   47: 
        -:   48: #define BAT_LOW_DEV 30
        -:   49:
        -:   50:
        -:   51:
        -:   52:	POW_MODE_T POW_sts = ES_DEFAULT;
        -:   53:	POW_MODE_T BAT_sts = ES_DEFAULT;
        -:   54:
        -:   55:  
        -:   56: 
       15:   57:void m_POW_monitor(void)
        -:   58:{	
       15:   59:	uint16_t buffer = 0;
       15:   60:	POW_MODE_T sts = POW_sts;
       15:   61:	if(ADC_STABLE == M_ADC_CHsts_get(ADC_AC,&buffer))
        -:   62:	{
       15:   63:		if((AC_ON_TH) <= buffer)
        -:   64:		{
        1:   65:			  sts = POW_AC;
        -:   66:		}
       14:   67:		else if((BAT_NORM_L1 <= buffer) && (BAT_NORM_H > buffer))
        -:   68:		{
        8:   69:			if((POW_sts == BAT_SHUT)||(POW_sts == BAT_LOW))
        -:   70:			{
        4:   71:				if(BAT_NORM_L2 < buffer)
        -:   72:				{
        2:   73:					sts = BAT_NORM;
        -:   74:				}
        -:   75:			}
        -:   76:			else
        -:   77:			{
        2:   78:				sts = BAT_NORM;
        -:   79:			}
        -:   80:			
        -:   81:		}
       10:   82:		else if((BAT_LOW_L1 <= buffer) && (BAT_LOW_H > buffer))
        -:   83:		{
        6:   84:			if(POW_sts == BAT_SHUT)
        -:   85:			{
        1:   86:				if(BAT_LOW_L2 < buffer)
        -:   87:				{
        1:   88:					sts = BAT_LOW;
        -:   89:				}
        -:   90:			}
        -:   91:			else
        -:   92:			{
        2:   93:				sts = BAT_LOW;
        -:   94:			}			 
        -:   95:		}
        7:   96:		else if(BAT_SH > buffer)
        -:   97:		{
        6:   98:			  sts = BAT_SHUT;				
        -:   99:		}		
       15:  100:		if(POW_sts - sts)
        -:  101:		{
       14:  102:			POW_sts = sts;
       14:  103:			NOTI_hdlr(E_POWER,POW_sts);			 
       14:  104:			APP_eventManager(E_POWER,POW_sts);
        -:  105:			/**********##TBH##*****GSM MUST BE TURNED OFF FOR POW_SHUT****/
        -:  106:		}
        -:  107:	}	
       15:  108:	sts = BAT_sts;
       15:  109:	if(ADC_STABLE == M_ADC_CHsts_get(ADC_BAT,&buffer))
        -:  110:	{
        -:  111:		/******************logic must be verified with different battery voltages*********************/
       15:  112:		if(BAT_CONN_TH <= buffer)
        -:  113:		{
        1:  114:			sts = BAT_DISCONN;	
        -:  115:		
        -:  116:		}
       14:  117:		else if(BAT_DISCONN_TH >= buffer)
        -:  118:		{
       13:  119:			sts = BAT_CONN;
        -:  120:		}
        -:  121:	}	
       15:  122:	if(BAT_sts - sts)
        -:  123:	{
       11:  124:		BAT_sts = sts;		 
       11:  125:		NOTI_hdlr(E_POWER,BAT_sts);
        -:  126:	}	 
       15:  127:}
    #####:  128:void m_POW_reset(void)
        -:  129:{
    #####:  130:	POW_sts = ES_DEFAULT;
    #####:  131:}
        -:  132:  
       12:  133:void pow_init(void)
        -:  134:{
       12:  135:	POW_sts = ES_DEFAULT;
       12:  136:	BAT_sts = ES_DEFAULT;
       12:  137:}
        -:  138:
